 _   _   _____      __
| | | | |  _  |    |  |
| |_| | | | | |   | || |
|  _  | | | | |  |  __  |
| | | | | |_| | |  |  |  |
|_| |_| |_____| |_| __ |_|                  
  _________________|  |__
/  -------         |  |  )  
\ _________________|  |__)
                   |__|
Hero of Antair  Map editor