# Rhino
mtllib jupitermesh.mtl
g Default object_1
usemtl material1
v 0 6 0
v 1.828545451164246 5.714579582214356 0
v 3.525723218917847 4.854819774627686 0
v 4.821142196655273 3.57163667678833 0
v 5.697936058044434 1.879767417907715 0
v 6 0 0
v 5.714579582214356 -1.828545451164246 0
v 4.854819774627686 -3.525723218917847 0
v 3.57163667678833 -4.821142196655273 0
v 1.879767417907715 -5.697936058044434 0
v 0 -6 0
v 0 6 0
v 1.722685694694519 5.714579582214356 0.6131331324577332
v 3.321609020233154 4.854819774627686 1.182217121124268
v 4.542032718658447 3.57163667678833 1.616586685180664
v 5.368066310882568 1.879767417907715 1.91058611869812
v 5.652642726898193 0 2.011871814727783
v 5.38374662399292 -1.828545451164246 1.91616690158844
v 4.573760509490967 -3.525723218917847 1.627879142761231
v 3.364864349365234 -4.821142196655273 1.197612404823303
v 1.770942330360413 -5.697936058044434 0.6303085088729858
v 0 -6 0
v 0 6 0
v 1.450023293495178 5.714579582214356 1.114006638526917
v 2.795872926712036 4.854819774627686 2.147980213165283
v 3.82313084602356 3.57163667678833 2.93718957901001
v 4.51842212677002 1.879767417907715 3.471359729766846
v 4.757956504821777 0 3.655386447906494
v 4.531620502471924 -1.828545451164246 3.481499433517456
v 3.849836826324463 -3.525723218917847 2.957707166671753
v 2.832281827926636 -4.821142196655273 2.175951957702637
v 1.490641951560974 -5.697936058044434 1.145212769508362
v 0 -6 0
v 0 6 0
v 1.017547369003296 5.714579582214356 1.519268155097961
v 1.961991429328919 4.854819774627686 2.929388046264648
v 2.682865142822266 3.57163667678833 4.005702018737793
v 3.170782566070557 1.879767417907715 4.734196186065674
v 3.338874816894531 0 4.985169410705566
v 3.180044412612915 -1.828545451164246 4.748024940490723
v 2.701606035232544 -3.525723218917847 4.033683300018311
v 1.987541198730469 -4.821142196655273 2.967535495758057
v 1.046051383018494 -5.697936058044434 1.561826467514038
v 0 -6 0
v 0 6 0
v 0.4690639078617096 5.714579582214356 1.767358899116516
v 0.904429018497467 4.854819774627686 3.407745838165283
v 1.236733794212341 3.57163667678833 4.659817695617676
v 1.46165144443512 1.879767417907715 5.507272243499756
v 1.539137840270996 0 5.799228668212891
v 1.46592104434967 -1.828545451164246 5.523359298706055
v 1.245372772216797 -3.525723218917847 4.692368507385254
v 0.9162068367004395 -4.821142196655273 3.452122926712036
v 0.4822035431861877 -5.697936058044434 1.816866874694824
v 0 -6 0
v 0 6 0
v -0.1576386690139771 5.714579582214356 1.821737766265869
v -0.303952157497406 4.854819774627686 3.512596845626831
v -0.4156300723552704 3.57163667678833 4.803193092346191
v -0.4912183582782745 1.879767417907715 5.676722526550293
v -0.5172592401504517 0 5.977662086486816
v -0.4926532208919525 -1.828545451164246 5.693304538726807
v -0.4185334146022797 -3.525723218917847 4.836745262145996
v -0.3079103529453278 -4.821142196655273 3.558339357376099
v -0.1620545238256455 -5.697936058044434 1.872768998146057
v 0 -6 0
v 0 6 0
v -0.7293335199356079 5.714579582214356 1.676797866821289
v -1.406269788742065 4.854819774627686 3.233129978179932
v -1.922960519790649 3.57163667678833 4.42104434967041
v -2.272678375244141 1.879767417907715 5.225074768066406
v -2.393159627914429 0 5.502071380615234
v -2.279316902160645 -1.828545451164246 5.240337371826172
v -1.936393141746521 -3.525723218917847 4.451927185058594
v -1.424582719802856 -4.821142196655273 3.275233030319214
v -0.7497639060020447 -5.697936058044434 1.723769068717957
v 0 -6 0
v 0 6 0
v -1.220926761627197 5.714579582214356 1.361218571662903
v -2.354138851165772 4.854819774627686 2.624643564224243
v -3.21909499168396 3.57163667678833 3.588988542556763
v -3.80453372001648 1.879767417907715 4.241697311401367
v -4.006222724914551 0 4.466562271118164
v -3.815646886825562 -1.828545451164246 4.254087448120117
v -3.241581678390503 -3.525723218917847 3.614059209823608
v -2.384795427322388 -4.821142196655273 2.658822774887085
v -1.255127906799316 -5.697936058044434 1.399349689483643
v 0 -6 0
v 0 6 0
v -1.601928949356079 5.714579582214356 0.8817039728164673
v -3.088771104812622 4.854819774627686 1.700063943862915
v -4.223645210266113 3.57163667678833 2.324700355529785
v -4.991775989532471 1.879767417907715 2.747480392456055
v -5.256404399871826 0 2.893132209777832
v -5.006356716156006 -1.828545451164246 2.755505800247192
v -4.253149032592773 -3.525723218917847 2.340939283370972
v -3.128994226455689 -4.821142196655273 1.722202897071838
v -1.64680290222168 -5.697936058044434 0.9064026474952698
v 0 -6 0
v 0 6 0
v -1.805976748466492 5.714579582214356 0.2864018976688385
v -3.482207536697388 4.854819774627686 0.5522279143333435
v -4.761637687683106 3.57163667678833 0.7551271915435791
v -5.627609729766846 1.879767417907715 0.8924578428268433
v -5.92594575881958 0 0.9397696256637573
v -5.64404821395874 -1.828545451164246 0.8950647711753845
v -4.794899940490723 -3.525723218917847 0.7604020237922669
v -3.527554035186768 -4.821142196655273 0.5594192743301392
v -1.856566667556763 -5.697936058044434 0.2944247126579285
v 0 -6 0
v 0 6 0
v -1.80605161190033 5.714579582214356 -0.2859298288822174
v -3.482351541519165 4.854819774627686 -0.5513176918029785
v -4.761835098266602 3.57163667678833 -0.7538825273513794
v -5.627842903137207 1.879767417907715 -0.8909868597984314
v -5.926191329956055 0 -0.9382206201553345
v -5.64428186416626 -1.828545451164246 -0.8935894370079041
v -4.795098304748535 -3.525723218917847 -0.7591487169265747
v -3.527700185775757 -4.821142196655273 -0.5584971904754639
v -1.856643557548523 -5.697936058044434 -0.2939394414424896
v 0 -6 0
v 0 6 0
v -1.609981894493103 5.714579582214356 -0.8669121265411377
v -3.10429835319519 4.854819774627686 -1.671543002128601
v -4.244877815246582 3.57163667678833 -2.28570032119751
v -5.01686954498291 1.879767417907715 -2.701387643814087
v -5.282828330993652 0 -2.844595909118652
v -5.031523704528809 -1.828545451164246 -2.709278345108032
v -4.274529933929443 -3.525723218917847 -2.301666975021362
v -3.144723653793335 -4.821142196655273 -1.693310499191284
v -1.655081391334534 -5.697936058044434 -0.8911964893341065
v 0 -6 0
v 0 6 0
v -1.240783214569092 5.714579582214356 -1.343143820762634
v -2.392425298690796 4.854819774627686 -2.589792490005493
v -3.271448612213135 3.57163667678833 -3.541332483291626
v -3.866408348083496 1.879767417907715 -4.185374736785889
v -4.071377754211426 0 -4.407253265380859
v -3.877702236175537 -1.828545451164246 -4.1975998878479
v -3.29430103302002 -3.525723218917847 -3.566070079803467
v -2.423580408096314 -4.821142196655273 -2.623517751693726
v -1.275540590286255 -5.697936058044434 -1.380768537521362
v 0 -6 0
v 0 6 0
v -0.7535302042961121 5.714579582214356 -1.666064381599426
v -1.452924728393555 4.854819774627686 -3.2124342918396
v -1.986757397651672 3.57163667678833 -4.392745018005371
v -2.348077774047852 1.879767417907715 -5.191628456115723
v -2.472556114196777 0 -5.466851711273193
v -2.354936599731445 -1.828545451164246 -5.206793308258057
v -2.000635623931885 -3.525723218917847 -4.4234299659729
v -1.471845269203186 -4.821142196655273 -3.254267930984497
v -0.7746384143829346 -5.697936058044434 -1.712734937667847
v 0 -6 0
v 0 6 0
v -0.1347126215696335 5.714579582214356 -1.823576331138611
v -0.2597471177577972 4.854819774627686 -3.516142129898071
v -0.3551832437515259 3.57163667678833 -4.808041095733643
v -0.4197784066200256 1.879767417907715 -5.682452201843262
v -0.4420320689678192 0 -5.983695030212402
v -0.4210045635700226 -1.828545451164246 -5.699050426483154
v -0.3576643466949463 -3.525723218917847 -4.84162712097168
v -0.2631296515464783 -4.821142196655273 -3.561930656433106
v -0.1384862512350082 -5.697936058044434 -1.874659180641174
v 0 -6 0
v 0 6 0
v 0.4313903450965881 5.714579582214356 -1.776930093765259
v 0.8317884206771851 4.854819774627686 -3.426200866699219
v 1.137403607368469 3.57163667678833 -4.68505334854126
v 1.34425675868988 1.879767417907715 -5.537097454071045
v 1.415519714355469 0 -5.830635070800781
v 1.348183393478394 -1.828545451164246 -5.553271293640137
v 1.145348906517029 -3.525723218917847 -4.717780590057373
v 0.842620313167572 -4.821142196655273 -3.470818281173706
v 0.4434746503829956 -5.697936058044434 -1.826706290245056
v 0 -6 0
v 0 6 0
v 1.000895738601685 5.714579582214356 -1.530289530754089
v 1.929884552955627 4.854819774627686 -2.950638771057129
v 2.638961553573608 3.57163667678833 -4.03476095199585
v 3.118894577026367 1.879767417907715 -4.768539905548096
v 3.284235954284668 0 -5.021333694458008
v 3.128004789352417 -1.828545451164246 -4.782468795776367
v 2.657395839691162 -3.525723218917847 -4.062945365905762
v 1.955016255378723 -4.821142196655273 -2.989063262939453
v 1.02893328666687 -5.697936058044434 -1.573156595230103
v 0 -6 0
v 0 6 0
v 1.431574702262878 5.714579582214356 -1.137616753578186
v 2.760301351547241 4.854819774627686 -2.193504095077515
v 3.774489641189575 3.57163667678833 -2.99944019317627
v 4.460934638977051 1.879767417907715 -3.544931173324585
v 4.697421550750732 0 -3.732858180999756
v 4.473965167999268 -1.828545451164246 -3.555286169052124
v 3.800855875015259 -3.525723218917847 -3.020392417907715
v 2.796247005462647 -4.821142196655273 -2.222068786621094
v 1.471676707267761 -5.697936058044434 -1.169484257698059
v 0 -6 0
v 0 6 0
v 1.723843932151794 5.714579582214356 -0.609869122505188
v 3.323842287063599 4.854819774627686 -1.175923585891724
v 4.54508638381958 3.57163667678833 -1.607980728149414
v 5.371675491333008 1.879767417907715 -1.900415062904358
v 5.656443595886231 0 -2.001161575317383
v 5.38736629486084 -1.828545451164246 -1.90596616268158
v 4.576835632324219 -3.525723218917847 -1.619213104248047
v 3.367126703262329 -4.821142196655273 -1.191236972808838
v 1.772132992744446 -5.697936058044434 -0.6269530653953552
v 0 -6 0
v 0 6 0
v 1.828545451164246 5.714579582214356 0
v 3.525723218917847 4.854819774627686 0
v 4.821142196655273 3.57163667678833 0
v 5.697936058044434 1.879767417907715 0
v 6 0 0
v 5.714579582214356 -1.828545451164246 0
v 4.854819774627686 -3.525723218917847 0
v 3.57163667678833 -4.821142196655273 0
v 1.879767417907715 -5.697936058044434 0
v 0 -6 0
vt 0 0
vt 0 0.1036704704165459
vt 0 0.2024375051259995
vt 0 0.2946818768978119
vt 0 0.3934645354747772
vt 0 0.5
vt 0 0.6036704778671265
vt 0 0.7024375200271606
vt 0 0.7946818470954895
vt 0 0.8934645056724548
vt 0 1
vt 0.05696818605065346 0
vt 0.05696818605065346 0.1036704704165459
vt 0.05696818605065346 0.2024375051259995
vt 0.05696818605065346 0.2946818768978119
vt 0.05696818605065346 0.3934645354747772
vt 0.05696818605065346 0.5
vt 0.05696818605065346 0.6036704778671265
vt 0.05696818605065346 0.7024375200271606
vt 0.05696818605065346 0.7946818470954895
vt 0.05696818605065346 0.8934645056724548
vt 0.05696818605065346 1
vt 0.1053102314472199 0
vt 0.1053102314472199 0.1036704704165459
vt 0.1053102314472199 0.2024375051259995
vt 0.1053102314472199 0.2946818768978119
vt 0.1053102314472199 0.3934645354747772
vt 0.1053102314472199 0.5
vt 0.1053102314472199 0.6036704778671265
vt 0.1053102314472199 0.7024375200271606
vt 0.1053102314472199 0.7946818470954895
vt 0.1053102314472199 0.8934645056724548
vt 0.1053102314472199 1
vt 0.1545558124780655 0
vt 0.1545558124780655 0.1036704704165459
vt 0.1545558124780655 0.2024375051259995
vt 0.1545558124780655 0.2946818768978119
vt 0.1545558124780655 0.3934645354747772
vt 0.1545558124780655 0.5
vt 0.1545558124780655 0.6036704778671265
vt 0.1545558124780655 0.7024375200271606
vt 0.1545558124780655 0.7946818470954895
vt 0.1545558124780655 0.8934645056724548
vt 0.1545558124780655 1
vt 0.2062452435493469 0
vt 0.2062452435493469 0.1036704704165459
vt 0.2062452435493469 0.2024375051259995
vt 0.2062452435493469 0.2946818768978119
vt 0.2062452435493469 0.3934645354747772
vt 0.2062452435493469 0.5
vt 0.2062452435493469 0.6036704778671265
vt 0.2062452435493469 0.7024375200271606
vt 0.2062452435493469 0.7946818470954895
vt 0.2062452435493469 0.8934645056724548
vt 0.2062452435493469 1
vt 0.2649999856948853 0
vt 0.2649999856948853 0.1036704704165459
vt 0.2649999856948853 0.2024375051259995
vt 0.2649999856948853 0.2946818768978119
vt 0.2649999856948853 0.3934645354747772
vt 0.2649999856948853 0.5
vt 0.2649999856948853 0.6036704778671265
vt 0.2649999856948853 0.7024375200271606
vt 0.2649999856948853 0.7946818470954895
vt 0.2649999856948853 0.8934645056724548
vt 0.2649999856948853 1
vt 0.3177247941493988 0
vt 0.3177247941493988 0.1036704704165459
vt 0.3177247941493988 0.2024375051259995
vt 0.3177247941493988 0.2946818768978119
vt 0.3177247941493988 0.3934645354747772
vt 0.3177247941493988 0.5
vt 0.3177247941493988 0.6036704778671265
vt 0.3177247941493988 0.7024375200271606
vt 0.3177247941493988 0.7946818470954895
vt 0.3177247941493988 0.8934645056724548
vt 0.3177247941493988 1
vt 0.3668080568313599 0
vt 0.3668080568313599 0.1036704704165459
vt 0.3668080568313599 0.2024375051259995
vt 0.3668080568313599 0.2946818768978119
vt 0.3668080568313599 0.3934645354747772
vt 0.3668080568313599 0.5
vt 0.3668080568313599 0.6036704778671265
vt 0.3668080568313599 0.7024375200271606
vt 0.3668080568313599 0.7946818470954895
vt 0.3668080568313599 0.8934645056724548
vt 0.3668080568313599 1
vt 0.4178727567195892 0
vt 0.4178727567195892 0.1036704704165459
vt 0.4178727567195892 0.2024375051259995
vt 0.4178727567195892 0.2946818768978119
vt 0.4178727567195892 0.3934645354747772
vt 0.4178727567195892 0.5
vt 0.4178727567195892 0.6036704778671265
vt 0.4178727567195892 0.7024375200271606
vt 0.4178727567195892 0.7946818470954895
vt 0.4178727567195892 0.8934645056724548
vt 0.4178727567195892 1
vt 0.4730204641819 0
vt 0.4730204641819 0.1036704704165459
vt 0.4730204641819 0.2024375051259995
vt 0.4730204641819 0.2946818768978119
vt 0.4730204641819 0.3934645354747772
vt 0.4730204641819 0.5
vt 0.4730204641819 0.6036704778671265
vt 0.4730204641819 0.7024375200271606
vt 0.4730204641819 0.7946818470954895
vt 0.4730204641819 0.8934645056724548
vt 0.4730204641819 1
vt 0.5269359350204468 0
vt 0.5269359350204468 0.1036704704165459
vt 0.5269359350204468 0.2024375051259995
vt 0.5269359350204468 0.2946818768978119
vt 0.5269359350204468 0.3934645354747772
vt 0.5269359350204468 0.5
vt 0.5269359350204468 0.6036704778671265
vt 0.5269359350204468 0.7024375200271606
vt 0.5269359350204468 0.7946818470954895
vt 0.5269359350204468 0.8934645056724548
vt 0.5269359350204468 1
vt 0.5807085037231445 0
vt 0.5807085037231445 0.1036704704165459
vt 0.5807085037231445 0.2024375051259995
vt 0.5807085037231445 0.2946818768978119
vt 0.5807085037231445 0.3934645354747772
vt 0.5807085037231445 0.5
vt 0.5807085037231445 0.6036704778671265
vt 0.5807085037231445 0.7024375200271606
vt 0.5807085037231445 0.7946818470954895
vt 0.5807085037231445 0.8934645056724548
vt 0.5807085037231445 1
vt 0.6309750080108643 0
vt 0.6309750080108643 0.1036704704165459
vt 0.6309750080108643 0.2024375051259995
vt 0.6309750080108643 0.2946818768978119
vt 0.6309750080108643 0.3934645354747772
vt 0.6309750080108643 0.5
vt 0.6309750080108643 0.6036704778671265
vt 0.6309750080108643 0.7024375200271606
vt 0.6309750080108643 0.7946818470954895
vt 0.6309750080108643 0.8934645056724548
vt 0.6309750080108643 1
vt 0.6800152659416199 0
vt 0.6800152659416199 0.1036704704165459
vt 0.6800152659416199 0.2024375051259995
vt 0.6800152659416199 0.2946818768978119
vt 0.6800152659416199 0.3934645354747772
vt 0.6800152659416199 0.5
vt 0.6800152659416199 0.6036704778671265
vt 0.6800152659416199 0.7024375200271606
vt 0.6800152659416199 0.7946818470954895
vt 0.6800152659416199 0.8934645056724548
vt 0.6800152659416199 1
vt 0.737155020236969 0
vt 0.737155020236969 0.1036704704165459
vt 0.737155020236969 0.2024375051259995
vt 0.737155020236969 0.2946818768978119
vt 0.737155020236969 0.3934645354747772
vt 0.737155020236969 0.5
vt 0.737155020236969 0.6036704778671265
vt 0.737155020236969 0.7024375200271606
vt 0.737155020236969 0.7946818470954895
vt 0.737155020236969 0.8934645056724548
vt 0.737155020236969 1
vt 0.7903046607971191 0
vt 0.7903046607971191 0.1036704704165459
vt 0.7903046607971191 0.2024375051259995
vt 0.7903046607971191 0.2946818768978119
vt 0.7903046607971191 0.3934645354747772
vt 0.7903046607971191 0.5
vt 0.7903046607971191 0.6036704778671265
vt 0.7903046607971191 0.7024375200271606
vt 0.7903046607971191 0.7946818470954895
vt 0.7903046607971191 0.8934645056724548
vt 0.7903046607971191 1
vt 0.8437796831130981 0
vt 0.8437796831130981 0.1036704704165459
vt 0.8437796831130981 0.2024375051259995
vt 0.8437796831130981 0.2946818768978119
vt 0.8437796831130981 0.3934645354747772
vt 0.8437796831130981 0.5
vt 0.8437796831130981 0.6036704778671265
vt 0.8437796831130981 0.7024375200271606
vt 0.8437796831130981 0.7946818470954895
vt 0.8437796831130981 0.8934645056724548
vt 0.8437796831130981 1
vt 0.8922079801559448 0
vt 0.8922079801559448 0.1036704704165459
vt 0.8922079801559448 0.2024375051259995
vt 0.8922079801559448 0.2946818768978119
vt 0.8922079801559448 0.3934645354747772
vt 0.8922079801559448 0.5
vt 0.8922079801559448 0.6036704778671265
vt 0.8922079801559448 0.7024375200271606
vt 0.8922079801559448 0.7946818470954895
vt 0.8922079801559448 0.8934645056724548
vt 0.8922079801559448 1
vt 0.9433321952819824 0
vt 0.9433321952819824 0.1036704704165459
vt 0.9433321952819824 0.2024375051259995
vt 0.9433321952819824 0.2946818768978119
vt 0.9433321952819824 0.3934645354747772
vt 0.9433321952819824 0.5
vt 0.9433321952819824 0.6036704778671265
vt 0.9433321952819824 0.7024375200271606
vt 0.9433321952819824 0.7946818470954895
vt 0.9433321952819824 0.8934645056724548
vt 0.9433321952819824 1
vt 1 0
vt 1 0.1036704704165459
vt 1 0.2024375051259995
vt 1 0.2946818768978119
vt 1 0.3934645354747772
vt 1 0.5
vt 1 0.6036704778671265
vt 1 0.7024375200271606
vt 1 0.7946818470954895
vt 1 0.8934645056724548
vt 1 1
vn 0 1 2.388856415458639e-017
vn 0.3047575652599335 0.9524299502372742 -2.244029034688649e-016
vn 0.5876205563545227 0.8091366291046143 -2.012709366051624e-016
vn 0.8035237193107605 0.5952727794647217 -5.186540892971201e-017
vn 0.9496560096740723 0.3132945597171783 -7.761972362366483e-017
vn 1 6.008483797885543e-017 -6.008483797885543e-017
vn 0.9524299502372742 -0.3047575652599335 -1.542454408488369e-016
vn 0.8091366291046143 -0.5876205563545227 -1.461692993341224e-016
vn 0.5952727794647217 -0.8035237193107605 -1.189948809645386e-016
vn 0.3132945597171783 -0.9496560096740723 -4.705605776385356e-016
vn 0 -1 2.388856415458639e-017
vn -1.599280922477374e-016 1 1.363824064511732e-018
vn 0.287114292383194 0.9524299502372742 0.1021888554096222
vn 0.5536015033721924 0.8091366291046143 0.1970361918210983
vn 0.7570054531097412 0.5952727794647217 0.2694311141967773
vn 0.8946776986122131 0.3132945597171783 0.31843101978302
vn 0.9421071410179138 2.468285772034553e-016 0.3353119492530823
vn 0.8972910642623901 -0.3047575652599335 0.31936115026474
vn 0.7622933983802795 -0.5876205563545227 0.2713131904602051
vn 0.5608107447624207 -0.8035237193107605 0.1996020674705505
vn 0.2951570451259613 -0.9496560096740723 0.1050514131784439
vn -1.562606778141427e-016 -1 -8.940298755009907e-018
vn -1.370609025893907e-016 1 7.977837385485261e-017
vn 0.2416705340147018 0.9524299502372742 0.1856677830219269
vn 0.4659788310527802 0.8091366291046143 0.3579967021942139
vn 0.6371884942054749 0.5952727794647217 0.4895316064357758
vn 0.7530702948570252 0.3132945597171783 0.578559935092926
vn 0.7929927706718445 8.471295619498465e-018 0.6092310547828674
vn 0.7552700638771057 -0.3047575652599335 0.5802499055862427
vn 0.6416394710540772 -0.5876205563545227 0.4929511845111847
vn 0.472046971321106 -0.8035237193107605 0.3626586496829987
vn 0.2484403252601624 -0.9496560096740723 0.1908687800168991
vn -1.37174656467229e-016 -1 1.785504821700377e-016
vn 1.8851745268593e-016 1 2.895569954090209e-016
vn 0.1695912331342697 0.9524299502372742 0.2532113492488861
vn 0.3269985616207123 0.8091366291046143 0.4882313311100006
vn 0.4471441805362701 0.5952727794647217 0.6676169633865356
vn 0.5284637808799744 0.3132945597171783 0.7890326976776123
vn 0.5564791560173035 3.880048489240851e-017 0.8308615684509277
vn 0.5300074219703674 -0.3047575652599335 0.7913374304771423
vn 0.4502676725387573 -0.5876205563545227 0.6722805500030518
vn 0.3312568664550781 -0.8035237193107605 0.4945892691612244
vn 0.1743418872356415 -0.9496560096740723 0.2603044211864471
vn 1.507160663158651e-016 -1 2.425586047070076e-016
vn -2.668748824496492e-016 1 -3.021603162685729e-016
vn 0.0781773179769516 0.9524299502372742 0.2945598065853119
vn 0.1507381647825241 0.8091366291046143 0.5679576396942139
vn 0.2061222940683365 0.5952727794647217 0.7766363024711609
vn 0.2436085790395737 0.3132945597171783 0.9178787469863892
vn 0.2565229833126068 9.290522063281183e-017 0.96653813123703
vn 0.2443201690912247 -0.3047575652599335 0.9205598831176758
vn 0.2075621336698532 -0.5876205563545227 0.7820613980293274
vn 0.1527011394500732 -0.8035237193107605 0.5753538012504578
vn 0.08036725223064423 -0.9496560096740723 0.3028111457824707
vn -3.963455625033635e-016 -1 -2.67798307180834e-016
vn -3.406188413870295e-016 1 -4.516400321188019e-016
vn -0.02627311274409294 0.9524299502372742 0.3036229610443115
vn -0.0506586953997612 0.8091366291046143 0.5854328274726868
vn -0.06927167624235153 0.5952727794647217 0.8005321621894836
vn -0.08186972886323929 0.3132945597171783 0.9461204409599304
vn -0.08620987832546234 3.115409679313978e-016 0.9962769746780396
vn -0.08210887014865875 -0.3047575652599335 0.9488840699195862
vn -0.06975556910037994 -0.5876205563545227 0.806124210357666
vn -0.05131839215755463 -0.8035237193107605 0.5930565595626831
vn -0.02700908668339253 -0.9496560096740723 0.3121281862258911
vn -3.58933652470358e-016 -1 -5.135342118823313e-016
vn -5.294501859543662e-018 1 -6.782529636610614e-017
vn -0.1215555816888809 0.9524299502372742 0.2794663012027741
vn -0.2343782931566238 0.8091366291046143 0.5388550162315369
vn -0.3204934298992157 0.5952727794647217 0.7368407845497131
vn -0.3787797391414642 0.3132945597171783 0.8708457946777344
vn -0.3988599479198456 -8.940854289509297e-017 0.9170118570327759
vn -0.3798861503601074 -0.3047575652599335 0.8733895421028137
vn -0.3227321803569794 -0.5876205563545227 0.7419878840446472
vn -0.2374304533004761 -0.8035237193107605 0.5458721518516541
vn -0.1249606534838677 -0.9496560096740723 0.2872948348522186
vn -1.323324205706824e-016 -1 7.963620135988945e-018
vn 1.426110992111643e-016 1 -3.008739643892692e-016
vn -0.2034877985715866 0.9524299502372742 0.2268697619438171
vn -0.3923564851284027 0.8091366291046143 0.4374406039714813
vn -0.5365158319473267 0.5952727794647217 0.5981647372245789
vn -0.634088933467865 0.3132945597171783 0.7069495916366577
vn -0.6677038073539734 -1.174189364615025e-016 0.7444270253181458
vn -0.6359411478042603 -0.3047575652599335 0.7090145945549011
vn -0.5402636528015137 -0.5876205563545227 0.6023432016372681
vn -0.3974659144878388 -0.8035237193107605 0.443137139081955
vn -0.2091879844665527 -0.9496560096740723 0.23322494328022
vn 1.015229867777363e-016 -1 -2.570145454408823e-016
vn 1.624212940233111e-016 1 -1.642529564496342e-017
vn -0.2669881582260132 0.9524299502372742 0.1469506621360779
vn -0.514795184135437 0.8091366291046143 0.2833440005779266
vn -0.7039409279823303 0.5952727794647217 0.3874500691890717
vn -0.8319626450538635 0.3132945597171783 0.4579133987426758
vn -0.8760673999786377 3.083415392011611e-016 0.4821887314319611
vn -0.834392786026001 -0.3047575652599335 0.4592509865760803
vn -0.7088581919670105 -0.5876205563545227 0.3901565670967102
vn -0.5214990377426148 -0.8035237193107605 0.2870337963104248
vn -0.2744671404361725 -0.9496560096740723 0.1510671079158783
vn 1.382584615930205e-016 -1 -1.849342253863585e-016
vn 9.289373109410347e-018 1 4.421906384383513e-016
vn -0.3009961247444153 0.9524299502372742 0.04773364961147308
vn -0.580367922782898 0.8091366291046143 0.09203799068927765
vn -0.7936063408851624 0.5952727794647217 0.1258545219898224
vn -0.9379349946975708 0.3132945597171783 0.1487429738044739
vn -0.9876576066017151 -1.849296858191568e-016 0.1566282659769058
vn -0.9406747221946716 -0.3047575652599335 0.1491774618625641
vn -0.7991499900817871 -0.5876205563545227 0.1267336755990982
vn -0.5879256725311279 -0.8035237193107605 0.09323654323816299
vn -0.3094277679920197 -0.9496560096740723 0.04907078668475151
vn -1.9546380445024e-017 -1 2.603597961869448e-016
vn -9.548151766400009e-017 1 2.188533156520221e-016
vn -0.3010086119174957 0.9524299502372742 -0.04765497148036957
vn -0.5803919434547424 0.8091366291046143 -0.09188628196716309
vn -0.7936391830444336 0.5952727794647217 -0.1256470829248428
vn -0.9379738569259644 0.3132945597171783 -0.1484978049993515
vn -0.9876985549926758 -1.232853013657286e-016 -0.1563701033592224
vn -0.94071364402771 -0.3047575652599335 -0.1489315778017044
vn -0.7991830706596375 -0.5876205563545227 -0.1265247762203217
vn -0.5879500508308411 -0.8035237193107605 -0.09308286756277084
vn -0.3094405829906464 -0.9496560096740723 -0.04898990318179131
vn -1.026791867507384e-016 -1 2.643167635396024e-016
vn -1.502893072942367e-016 1 3.424764375799174e-016
vn -0.268330305814743 0.9524299502372742 -0.144485354423523
vn -0.5173830389976502 0.8091366291046143 -0.2785905003547669
vn -0.7074795961380005 0.5952727794647217 -0.3809500634670258
vn -0.8361449241638184 0.3132945597171783 -0.450231283903122
vn -0.8804713487625122 1.633494436101548e-017 -0.474099338054657
vn -0.8385872840881348 -0.3047575652599335 -0.4515464007854462
vn -0.7124216556549072 -0.5876205563545227 -0.3836111426353455
vn -0.5241206288337708 -0.8035237193107605 -0.2822184264659882
vn -0.2758468985557556 -0.9496560096740723 -0.1485327482223511
vn -2.762588163651448e-016 -1 3.229506870193705e-016
vn -1.829431817996087e-016 1 -1.888695933988612e-016
vn -0.2067971974611282 0.9524299502372742 -0.2238572984933853
vn -0.3987375497817993 0.8091366291046143 -0.4316321015357971
vn -0.5452414155006409 0.5952727794647217 -0.5902220606803894
vn -0.6444014310836792 0.3132945597171783 -0.6975624561309815
vn -0.6785629987716675 -1.21339229934522e-016 -0.7345422506332398
vn -0.6462836861610413 -0.3047575652599335 -0.6996000409126282
vn -0.5490501523017883 -0.5876205563545227 -0.5943450331687927
vn -0.4039300680160523 -0.8035237193107605 -0.4372529685497284
vn -0.2125900983810425 -0.9496560096740723 -0.2301280945539475
vn -2.778500008437865e-017 -1 -1.686051639338595e-016
vn 2.570252127620618e-016 1 1.475304018710213e-016
vn -0.1255883574485779 0.9524299502372742 -0.2776773869991303
vn -0.2421541213989258 0.8091366291046143 -0.535405695438385
vn -0.3311262428760529 0.5952727794647217 -0.7321241497993469
vn -0.391346275806427 0.3132945597171783 -0.8652713894844055
vn -0.4120926856994629 -2.807566142546243e-017 -0.9111419320106506
vn -0.3924894034862518 -0.3047575652599335 -0.8677988648414612
vn -0.3334392905235291 -0.5876205563545227 -0.737238347530365
vn -0.2453075498342514 -0.8035237193107605 -0.5423779487609863
vn -0.1291064023971558 -0.9496560096740723 -0.2854558229446411
vn 3.844077713123371e-016 -1 8.991762293128261e-017
vn -1.467184413817392e-016 1 2.518327419767153e-016
vn -0.0224521029740572 0.9524299502372742 -0.3039293885231018
vn -0.04329118505120277 0.8091366291046143 -0.5860236883163452
vn -0.05919720605015755 0.5952727794647217 -0.8013401627540588
vn -0.06996306777000427 0.3132945597171783 -0.9470753073692322
vn -0.07367201149463654 1.222261793094157e-016 -0.9972825050354004
vn -0.0701674297451973 -0.3047575652599335 -0.9498417377471924
vn -0.05961072444915772 -0.5876205563545227 -0.8069378137588501
vn -0.04385494068264961 -0.8035237193107605 -0.5936551094055176
vn -0.02308104000985622 -0.9496560096740723 -0.3124431967735291
vn -1.467184413817392e-016 -1 2.518327419767153e-016
vn -4.498632018409237e-017 1 -1.092145587907851e-017
vn 0.07189839333295822 0.9524299502372742 -0.2961550056934357
vn 0.1386314034461975 0.8091366291046143 -0.5710334777832031
vn 0.1895672678947449 0.5952727794647217 -0.7808422446250916
vn 0.2240427881479263 0.3132945597171783 -0.9228495955467224
vn 0.2359199523925781 -1.979331106322782e-016 -0.9717724919319153
vn 0.2246972322463989 -0.3047575652599335 -0.9255452156066895
vn 0.1908914744853973 -0.5876205563545227 -0.7862967252731323
vn 0.1404367238283157 -0.8035237193107605 -0.5784696936607361
vn 0.07391244173049927 -0.9496560096740723 -0.304451048374176
vn 4.883152550982677e-017 -1 -1.118053314826931e-016
vn 5.563004686378375e-017 1 -1.431034768164253e-016
vn 0.1668159663677216 0.9524299502372742 -0.2550482451915741
vn 0.321647435426712 0.8091366291046143 -0.4917731583118439
vn 0.4398269057273865 0.5952727794647217 -0.67246013879776
vn 0.5198157429695129 0.3132945597171783 -0.7947566509246826
vn 0.5473726987838745 -1.345350900453478e-016 -0.8368889689445496
vn 0.5213341116905212 -0.3047575652599335 -0.7970781326293945
vn 0.4428992867469788 -0.5876205563545227 -0.6771575212478638
vn 0.3258360326290131 -0.8035237193107605 -0.4981772005558014
vn 0.171488881111145 -0.9496560096740723 -0.2621927559375763
vn -8.05783898560894e-017 -1 -8.860055287275117e-017
vn -9.160079651148511e-017 1 -6.698165816808576e-017
vn 0.2385957986116409 0.9524299502372742 -0.1896028071641922
vn 0.4600502252578735 0.8091366291046143 -0.3655840456485748
vn 0.6290816068649292 0.5952727794647217 -0.4999066889286041
vn 0.7434890866279602 0.3132945597171783 -0.5908218622207642
vn 0.7829036116600037 2.739313815843268e-016 -0.622143030166626
vn 0.7456608414649963 -0.3047575652599335 -0.5925476551055908
vn 0.6334759593009949 -0.5876205563545227 -0.5033987164497376
vn 0.4660411775112152 -0.8035237193107605 -0.3703448176383972
vn 0.2452794462442398 -0.9496560096740723 -0.1949140429496765
vn -2.988374258688289e-017 -1 1.0682961510506e-017
vn -1.251853550850976e-016 1 -8.362159394711689e-017
vn 0.2873073220252991 0.9524299502372742 -0.1016448512673378
vn 0.5539737343788147 0.8091366291046143 -0.195987269282341
vn 0.7575144171714783 0.5952727794647217 -0.2679967880249023
vn 0.8952792286872864 0.3132945597171783 -0.3167358338832855
vn 0.9427405595779419 5.583288395769094e-018 -0.3335269093513489
vn 0.8978943824768066 -0.3047575652599335 -0.3176610469818115
vn 0.7628059387207031 -0.5876205563545227 -0.2698688507080078
vn 0.5611878037452698 -0.8035237193107605 -0.1985394954681397
vn 0.295355498790741 -0.9496560096740723 -0.1044921725988388
vn -1.196332394043029e-016 -1 -2.480780037402146e-016
vn -6.008483797885543e-017 1 -7.316478030736044e-017
vn 0.3047575652599335 0.9524299502372742 -3.07510044014533e-016
vn 0.5876205563545227 0.8091366291046143 -6.995930984992965e-017
vn 0.8035237193107605 0.5952727794647217 -2.359628914956364e-016
vn 0.9496560096740723 0.3132945597171783 -1.387535655855804e-016
vn 1 6.008483797885543e-017 -2.403393519154217e-016
vn 0.9524299502372742 -0.3047575652599335 -1.382899209260771e-016
vn 0.8091366291046143 -0.5876205563545227 -8.911196886699066e-017
vn 0.5952727794647217 -0.8035237193107605 4.89848120035002e-017
vn 0.3132945597171783 -0.9496560096740723 -3.331457013039763e-017
vn -6.008483797885543e-017 -1 1.219412983064524e-016
f 13/13/13 2/2/2 1/1/1
f 14/14/14 3/3/3 2/2/2 13/13/13
f 15/15/15 4/4/4 3/3/3 14/14/14
f 16/16/16 5/5/5 4/4/4 15/15/15
f 17/17/17 6/6/6 5/5/5 16/16/16
f 18/18/18 7/7/7 6/6/6 17/17/17
f 19/19/19 8/8/8 7/7/7 18/18/18
f 20/20/20 9/9/9 8/8/8 19/19/19
f 21/21/21 10/10/10 9/9/9 20/20/20
f 22/22/22 10/10/10 21/21/21
f 24/24/24 13/13/13 12/12/12
f 25/25/25 14/14/14 13/13/13 24/24/24
f 26/26/26 15/15/15 14/14/14 25/25/25
f 27/27/27 16/16/16 15/15/15 26/26/26
f 28/28/28 17/17/17 16/16/16 27/27/27
f 29/29/29 18/18/18 17/17/17 28/28/28
f 30/30/30 19/19/19 18/18/18 29/29/29
f 31/31/31 20/20/20 19/19/19 30/30/30
f 32/32/32 21/21/21 20/20/20 31/31/31
f 33/33/33 21/21/21 32/32/32
f 35/35/35 24/24/24 23/23/23
f 36/36/36 25/25/25 24/24/24 35/35/35
f 37/37/37 26/26/26 25/25/25 36/36/36
f 38/38/38 27/27/27 26/26/26 37/37/37
f 39/39/39 28/28/28 27/27/27 38/38/38
f 40/40/40 29/29/29 28/28/28 39/39/39
f 41/41/41 30/30/30 29/29/29 40/40/40
f 42/42/42 31/31/31 30/30/30 41/41/41
f 43/43/43 32/32/32 31/31/31 42/42/42
f 44/44/44 32/32/32 43/43/43
f 46/46/46 35/35/35 34/34/34
f 47/47/47 36/36/36 35/35/35 46/46/46
f 48/48/48 37/37/37 36/36/36 47/47/47
f 49/49/49 38/38/38 37/37/37 48/48/48
f 50/50/50 39/39/39 38/38/38 49/49/49
f 51/51/51 40/40/40 39/39/39 50/50/50
f 52/52/52 41/41/41 40/40/40 51/51/51
f 53/53/53 42/42/42 41/41/41 52/52/52
f 54/54/54 43/43/43 42/42/42 53/53/53
f 55/55/55 43/43/43 54/54/54
f 57/57/57 46/46/46 45/45/45
f 58/58/58 47/47/47 46/46/46 57/57/57
f 59/59/59 48/48/48 47/47/47 58/58/58
f 60/60/60 49/49/49 48/48/48 59/59/59
f 61/61/61 50/50/50 49/49/49 60/60/60
f 62/62/62 51/51/51 50/50/50 61/61/61
f 63/63/63 52/52/52 51/51/51 62/62/62
f 64/64/64 53/53/53 52/52/52 63/63/63
f 65/65/65 54/54/54 53/53/53 64/64/64
f 66/66/66 54/54/54 65/65/65
f 68/68/68 57/57/57 56/56/56
f 69/69/69 58/58/58 57/57/57 68/68/68
f 70/70/70 59/59/59 58/58/58 69/69/69
f 71/71/71 60/60/60 59/59/59 70/70/70
f 72/72/72 61/61/61 60/60/60 71/71/71
f 73/73/73 62/62/62 61/61/61 72/72/72
f 74/74/74 63/63/63 62/62/62 73/73/73
f 75/75/75 64/64/64 63/63/63 74/74/74
f 76/76/76 65/65/65 64/64/64 75/75/75
f 77/77/77 65/65/65 76/76/76
f 79/79/79 68/68/68 67/67/67
f 80/80/80 69/69/69 68/68/68 79/79/79
f 81/81/81 70/70/70 69/69/69 80/80/80
f 82/82/82 71/71/71 70/70/70 81/81/81
f 83/83/83 72/72/72 71/71/71 82/82/82
f 84/84/84 73/73/73 72/72/72 83/83/83
f 85/85/85 74/74/74 73/73/73 84/84/84
f 86/86/86 75/75/75 74/74/74 85/85/85
f 87/87/87 76/76/76 75/75/75 86/86/86
f 88/88/88 76/76/76 87/87/87
f 90/90/90 79/79/79 78/78/78
f 91/91/91 80/80/80 79/79/79 90/90/90
f 92/92/92 81/81/81 80/80/80 91/91/91
f 93/93/93 82/82/82 81/81/81 92/92/92
f 94/94/94 83/83/83 82/82/82 93/93/93
f 95/95/95 84/84/84 83/83/83 94/94/94
f 96/96/96 85/85/85 84/84/84 95/95/95
f 97/97/97 86/86/86 85/85/85 96/96/96
f 98/98/98 87/87/87 86/86/86 97/97/97
f 99/99/99 87/87/87 98/98/98
f 101/101/101 90/90/90 89/89/89
f 102/102/102 91/91/91 90/90/90 101/101/101
f 103/103/103 92/92/92 91/91/91 102/102/102
f 104/104/104 93/93/93 92/92/92 103/103/103
f 105/105/105 94/94/94 93/93/93 104/104/104
f 106/106/106 95/95/95 94/94/94 105/105/105
f 107/107/107 96/96/96 95/95/95 106/106/106
f 108/108/108 97/97/97 96/96/96 107/107/107
f 109/109/109 98/98/98 97/97/97 108/108/108
f 110/110/110 98/98/98 109/109/109
f 112/112/112 101/101/101 100/100/100
f 113/113/113 102/102/102 101/101/101 112/112/112
f 114/114/114 103/103/103 102/102/102 113/113/113
f 115/115/115 104/104/104 103/103/103 114/114/114
f 116/116/116 105/105/105 104/104/104 115/115/115
f 117/117/117 106/106/106 105/105/105 116/116/116
f 118/118/118 107/107/107 106/106/106 117/117/117
f 119/119/119 108/108/108 107/107/107 118/118/118
f 120/120/120 109/109/109 108/108/108 119/119/119
f 121/121/121 109/109/109 120/120/120
f 123/123/123 112/112/112 111/111/111
f 124/124/124 113/113/113 112/112/112 123/123/123
f 125/125/125 114/114/114 113/113/113 124/124/124
f 126/126/126 115/115/115 114/114/114 125/125/125
f 127/127/127 116/116/116 115/115/115 126/126/126
f 128/128/128 117/117/117 116/116/116 127/127/127
f 129/129/129 118/118/118 117/117/117 128/128/128
f 130/130/130 119/119/119 118/118/118 129/129/129
f 131/131/131 120/120/120 119/119/119 130/130/130
f 132/132/132 120/120/120 131/131/131
f 134/134/134 123/123/123 122/122/122
f 135/135/135 124/124/124 123/123/123 134/134/134
f 136/136/136 125/125/125 124/124/124 135/135/135
f 137/137/137 126/126/126 125/125/125 136/136/136
f 138/138/138 127/127/127 126/126/126 137/137/137
f 139/139/139 128/128/128 127/127/127 138/138/138
f 140/140/140 129/129/129 128/128/128 139/139/139
f 141/141/141 130/130/130 129/129/129 140/140/140
f 142/142/142 131/131/131 130/130/130 141/141/141
f 143/143/143 131/131/131 142/142/142
f 145/145/145 134/134/134 133/133/133
f 146/146/146 135/135/135 134/134/134 145/145/145
f 147/147/147 136/136/136 135/135/135 146/146/146
f 148/148/148 137/137/137 136/136/136 147/147/147
f 149/149/149 138/138/138 137/137/137 148/148/148
f 150/150/150 139/139/139 138/138/138 149/149/149
f 151/151/151 140/140/140 139/139/139 150/150/150
f 152/152/152 141/141/141 140/140/140 151/151/151
f 153/153/153 142/142/142 141/141/141 152/152/152
f 154/154/154 142/142/142 153/153/153
f 156/156/156 145/145/145 144/144/144
f 157/157/157 146/146/146 145/145/145 156/156/156
f 158/158/158 147/147/147 146/146/146 157/157/157
f 159/159/159 148/148/148 147/147/147 158/158/158
f 160/160/160 149/149/149 148/148/148 159/159/159
f 161/161/161 150/150/150 149/149/149 160/160/160
f 162/162/162 151/151/151 150/150/150 161/161/161
f 163/163/163 152/152/152 151/151/151 162/162/162
f 164/164/164 153/153/153 152/152/152 163/163/163
f 165/165/165 153/153/153 164/164/164
f 167/167/167 156/156/156 155/155/155
f 168/168/168 157/157/157 156/156/156 167/167/167
f 169/169/169 158/158/158 157/157/157 168/168/168
f 170/170/170 159/159/159 158/158/158 169/169/169
f 171/171/171 160/160/160 159/159/159 170/170/170
f 172/172/172 161/161/161 160/160/160 171/171/171
f 173/173/173 162/162/162 161/161/161 172/172/172
f 174/174/174 163/163/163 162/162/162 173/173/173
f 175/175/175 164/164/164 163/163/163 174/174/174
f 176/176/176 164/164/164 175/175/175
f 178/178/178 167/167/167 166/166/166
f 179/179/179 168/168/168 167/167/167 178/178/178
f 180/180/180 169/169/169 168/168/168 179/179/179
f 181/181/181 170/170/170 169/169/169 180/180/180
f 182/182/182 171/171/171 170/170/170 181/181/181
f 183/183/183 172/172/172 171/171/171 182/182/182
f 184/184/184 173/173/173 172/172/172 183/183/183
f 185/185/185 174/174/174 173/173/173 184/184/184
f 186/186/186 175/175/175 174/174/174 185/185/185
f 187/187/187 175/175/175 186/186/186
f 189/189/189 178/178/178 177/177/177
f 190/190/190 179/179/179 178/178/178 189/189/189
f 191/191/191 180/180/180 179/179/179 190/190/190
f 192/192/192 181/181/181 180/180/180 191/191/191
f 193/193/193 182/182/182 181/181/181 192/192/192
f 194/194/194 183/183/183 182/182/182 193/193/193
f 195/195/195 184/184/184 183/183/183 194/194/194
f 196/196/196 185/185/185 184/184/184 195/195/195
f 197/197/197 186/186/186 185/185/185 196/196/196
f 198/198/198 186/186/186 197/197/197
f 200/200/200 189/189/189 188/188/188
f 201/201/201 190/190/190 189/189/189 200/200/200
f 202/202/202 191/191/191 190/190/190 201/201/201
f 203/203/203 192/192/192 191/191/191 202/202/202
f 204/204/204 193/193/193 192/192/192 203/203/203
f 205/205/205 194/194/194 193/193/193 204/204/204
f 206/206/206 195/195/195 194/194/194 205/205/205
f 207/207/207 196/196/196 195/195/195 206/206/206
f 208/208/208 197/197/197 196/196/196 207/207/207
f 209/209/209 197/197/197 208/208/208
f 211/211/211 200/200/200 199/199/199
f 212/212/212 201/201/201 200/200/200 211/211/211
f 213/213/213 202/202/202 201/201/201 212/212/212
f 214/214/214 203/203/203 202/202/202 213/213/213
f 215/215/215 204/204/204 203/203/203 214/214/214
f 216/216/216 205/205/205 204/204/204 215/215/215
f 217/217/217 206/206/206 205/205/205 216/216/216
f 218/218/218 207/207/207 206/206/206 217/217/217
f 219/219/219 208/208/208 207/207/207 218/218/218
f 220/220/220 208/208/208 219/219/219
